[
  {
    "id": 1,
    "title": "Grocery Shopping",
    "description": "Buy vegetables, fruits, milk, and bread",
    "status": "TODO"
  },
  {
    "id": 2,
    "title": "Workout Session",
    "description": "Complete 30 minutes of cardio and 15 minutes of strength training",
    "status": "TODO"
  },
  {
    "id": 3,
    "title": "Team Meeting",
    "description": "Discuss project updates and plan the next sprint",
    "status": "TODO"
  },
  {
    "id": 4,
    "title": "Doctor Appointment",
    "description": "Visit Dr. Smith for a regular check-up at 3 PM",
    "status": "IN_PROGRESS"
  },
  {
    "id": 5,
    "title": "Finish Report",
    "description": "Complete the quarterly financial report and send it to the manager",
    "status": "IN_PROGRESS"
  },
  {
    "id": 6,
    "title": "Read Book",
    "description": "Read chapters 5 and 6 of 'The Great Gatsby'",
    "status": "COMPLETED"
  },
  {
    "id": 7,
    "title": "Clean House",
    "description": "Vacuum the living room, clean the kitchen, and organize the bedroom",
    "status": "COMPLETED"
  }
]